{
  "project_info": {
    "project_number": "34465796555",
    "firebase_url": "https://afrahcom-195809.firebaseio.com",
    "project_id": "afrahcom-195809",
    "storage_bucket": "afrahcom-195809.appspot.com"
  },
  "client": [
    {
      "client_info": {
        "mobilesdk_app_id": "1:34465796555:android:1911bae6a5778032",
        "android_client_info": {
          "package_name": "com.cs.afrahcom"
        }
      },
      "oauth_client": [
        {
          "client_id": "34465796555-5bmjt2aaku32c2tec04oaen9pf5oog0e.apps.googleusercontent.com",
          "client_type": 3
        }
      ],
      "api_key": [
        {
          "current_key": "AIzaSyAKHsv-loSj2S7feKQ293_t9e4w0u13FMc"
        }
      ],
      "services": {
        "analytics_service": {
          "status": 1
        },
        "appinvite_service": {
          "status": 2,
          "other_platform_oauth_client": [
            {
              "client_id": "34465796555-5bmjt2aaku32c2tec04oaen9pf5oog0e.apps.googleusercontent.com",
              "client_type": 3
            }
          ]
        },
        "ads_service": {
          "status": 2
        }
      }
    }
  ],
  "configuration_version": "1"
}